{
	"info": {
		"_postman_id": "6e9bea34-9374-4132-ad59-10cf643d8cf8",
		"name": "Lemonade Timer API",
		"schema": "https://schema.getpostman.com/json/collection/v2.1.0/collection.json"
	},
	"item": [
		{
			"name": "Set Timer",
			"event": [
				{
					"listen": "test",
					"script": {
						"exec": [
							"const responseJson = pm.response.json();",
							"pm.collectionVariables.set(\"timer_id\", responseJson.id);"
						],
						"type": "text/javascript"
					}
				}
			],
			"request": {
				"method": "POST",
				"header": [],
				"body": {
					"mode": "raw",
					"raw": "{\n    \"hours\": 0,\n    \"minutes\": 0,\n    \"seconds\": 50,\n    \"url\": \"http://localhost:3000/webhook-test\"\n}",
					"options": {
						"raw": {
							"language": "json"
						}
					}
				},
				"url": {
					"raw": "{{base_url}}/timers",
					"host": [
						"{{base_url}}"
					],
					"path": [
						"timers"
					]
				}
			},
			"response": []
		},
		{
			"name": "Get Timer Status",
			"request": {
				"method": "GET",
				"header": [],
				"url": {
					"raw": "{{base_url}}/timers/{{timer_id}}",
					"host": [
						"{{base_url}}"
					],
					"path": [
						"timers",
						"{{timer_id}}"
					]
				}
			},
			"response": []
		}
	],
	"event": [
		{
			"listen": "prerequest",
			"script": {
				"type": "text/javascript",
				"exec": [
					""
				]
			}
		},
		{
			"listen": "test",
			"script": {
				"type": "text/javascript",
				"exec": [
					""
				]
			}
		}
	],
	"variable": [
		{
			"key": "base_url",
			"value": "http://localhost:3000",
			"type": "default"
		},
		{
			"key": "timer_id",
			"value": ""
		}
	]
}